{
  "project_info": {
    "project_number": "651091518062",
    "firebase_url": "https://omnichannel-33607.firebaseio.com",
    "project_id": "omnichannel-33607",
    "storage_bucket": "omnichannel-33607.appspot.com"
  },
  "client": [
    {
      "client_info": {
        "mobilesdk_app_id": "1:651091518062:android:1aeb091544d0ff01",
        "android_client_info": {
          "package_name": "ntuc.fairprice.omni.beta"
        }
      },
      "oauth_client": [
        {
          "client_id": "651091518062-34hd65jipg3ajp09vas4rg4pp9ii9a8s.apps.googleusercontent.com",
          "client_type": 3
        }
      ],
      "api_key": [
        {
          "current_key": "AIzaSyBNhQKcadqf-987UfOBMlkcxNvmxwIC8RU"
        }
      ],
      "services": {
        "analytics_service": {
          "status": 1
        },
        "appinvite_service": {
          "status": 1,
          "other_platform_oauth_client": []
        },
        "ads_service": {
          "status": 2
        }
      }
    }
  ],
  "configuration_version": "1"
}