{
  "v": "5.4.3",
  "fr": 20,
  "ip": 0,
  "op": 40,
  "w": 656,
  "h": 656,
  "nm": "Scan bar running",
  "ddd": 0,
  "assets": [],
  "layers": [
    {
      "ddd": 0,
      "ind": 1,
      "ty": 4,
      "nm": "Scan bar",
      "sr": 1,
      "ks": {
        "o": {
          "a": 1,
          "k": [
            {
              "i": {
                "x": [
                  0.35
                ],
                "y": [
                  1
                ]
              },
              "o": {
                "x": [
                  0.65
                ],
                "y": [
                  0
                ]
              },
              "n": [
                "0p35_1_0p65_0"
              ],
              "t": 0,
              "s": [
                50
              ],
              "e": [
                100
              ]
            },
            {
              "t": 40
            }
          ],
          "ix": 11
        },
        "r": {
          "a": 0,
          "k": 0,
          "ix": 10
        },
        "p": {
          "a": 1,
          "k": [
            {
              "i": {
                "x": 0.35,
                "y": 1
              },
              "o": {
                "x": 0.65,
                "y": 0
              },
              "n": "0p35_1_0p65_0",
              "t": 0,
              "s": [
                328,
                -132,
                0
              ],
              "e": [
                328,
                656,
                0
              ],
              "to": [
                0,
                131.33332824707,
                0
              ],
              "ti": [
                0,
                -131.33332824707,
                0
              ]
            },
            {
              "t": 40
            }
          ],
          "ix": 2
        },
        "a": {
          "a": 0,
          "k": [
            -0.816,
            -174,
            0
          ],
          "ix": 1
        },
        "s": {
          "a": 0,
          "k": [
            90,
            20,
            100
          ],
          "ix": 6
        }
      },
      "ao": 0,
      "shapes": [
        {
          "ty": "gr",
          "it": [
            {
              "ind": 0,
              "ty": "sh",
              "ix": 1,
              "ks": {
                "a": 0,
                "k": {
                  "i": [
                    [
                      0,
                      0
                    ],
                    [
                      0,
                      0
                    ],
                    [
                      0,
                      0
                    ],
                    [
                      0,
                      0
                    ]
                  ],
                  "o": [
                    [
                      0,
                      0
                    ],
                    [
                      0,
                      0
                    ],
                    [
                      0,
                      0
                    ],
                    [
                      0,
                      0
                    ]
                  ],
                  "v": [
                    [
                      328.184,
                      -328.184
                    ],
                    [
                      -328.184,
                      -328.184
                    ],
                    [
                      -328.184,
                      328.184
                    ],
                    [
                      328.184,
                      328.184
                    ]
                  ],
                  "c": true
                },
                "ix": 2
              },
              "nm": "Path 1",
              "mn": "ADBE Vector Shape - Group",
              "hd": false
            },
            {
              "ty": "gf",
              "o": {
                "a": 0,
                "k": 100,
                "ix": 10
              },
              "r": 1,
              "bm": 0,
              "g": {
                "p": 3,
                "k": {
                  "a": 0,
                  "k": [
                    0,
                    1,
                    1,
                    1,
                    0.5,
                    1,
                    1,
                    1,
                    1,
                    1,
                    1,
                    1,
                    0,
                    0,
                    0.5,
                    0.5,
                    1,
                    1
                  ],
                  "ix": 9
                }
              },
              "s": {
                "a": 0,
                "k": [
                  0.082,
                  -328.117
                ],
                "ix": 5
              },
              "e": {
                "a": 0,
                "k": [
                  0.155,
                  328.783
                ],
                "ix": 6
              },
              "t": 1,
              "nm": "Gradient Fill 1",
              "mn": "ADBE Vector Graphic - G-Fill",
              "hd": false
            },
            {
              "ty": "tr",
              "p": {
                "a": 0,
                "k": [
                  -0.816,
                  154.184
                ],
                "ix": 2
              },
              "a": {
                "a": 0,
                "k": [
                  0,
                  0
                ],
                "ix": 1
              },
              "s": {
                "a": 0,
                "k": [
                  100,
                  100
                ],
                "ix": 3
              },
              "r": {
                "a": 0,
                "k": 0,
                "ix": 6
              },
              "o": {
                "a": 0,
                "k": 100,
                "ix": 7
              },
              "sk": {
                "a": 0,
                "k": 0,
                "ix": 4
              },
              "sa": {
                "a": 0,
                "k": 0,
                "ix": 5
              },
              "nm": "Transform"
            }
          ],
          "nm": "Rectangle 1",
          "np": 3,
          "cix": 2,
          "bm": 0,
          "ix": 1,
          "mn": "ADBE Vector Group",
          "hd": false
        }
      ],
      "ip": 0,
      "op": 40,
      "st": 0,
      "bm": 0
    }
  ],
  "markers": []
}